22

13 68
9
f 3 4 n
r 2 46 w
r 6 21 e
t 0 64 n
f 6 8 s
t 0 0 n
r 5 0 n
h 5 31 w
h 10 29 w
18 5

34 59
1
f 3 13 n
2 1

65 68
8
f 23 63 s
r 35 55 s
h 15 17 e
h 1 35 s
f 48 67 w
h 21 61 e
t 37 50 w
t 55 2 n
27 1

14 67
6
h 0 46 s
t 6 13 n
r 12 12 n
t 9 45 s
h 10 33 n
f 7 21 s
6 4

14 42
1
t 4 4 w
29 1

52 65
8
r 22 20 n
t 34 54 w
t 16 47 e
h 3 62 e
r 37 51 w
t 31 20 w
h 44 24 n
f 13 63 s
1 5

16 67
6
r 15 5 e
h 11 31 s
t 5 32 n
h 3 14 e
f 1 15 e
h 7 0 n
19 5

42 58
2
r 6 38 n
h 10 48 s
19 1

45 63
9
r 3 44 n
f 10 35 e
f 26 55 w
r 5 47 n
f 19 53 n
f 28 19 e
h 36 33 e
t 31 51 n
h 9 40 e
30 2

3 28
4
r 1 1 w
f 1 9 n
r 1 10 s
t 1 12 n
11 1

37 10
6
f 6 4 w
t 1 6 w
t 36 7 s
f 9 4 w
t 12 9 n
f 20 9 s
19 5

32 33
4
f 0 20 s
f 13 15 e
t 7 17 s
r 1 28 n
12 1

14 50
6
h 2 36 e
h 2 19 e
t 0 16 n
t 6 13 n
f 5 24 w
h 4 32 w
16 2

24 6
8
r 22 0 s
r 4 3 s
h 21 5 n
f 11 2 e
h 18 2 e
f 18 4 s
r 18 0 w
t 1 1 s
26 3

35 52
10
h 12 41 e
t 5 20 s
r 16 51 w
r 33 33 n
h 14 10 e
t 31 8 n
f 14 44 n
f 18 35 w
t 6 32 s
f 7 33 n
12 3

9 42
9
t 2 39 e
h 6 37 s
h 4 19 s
f 2 23 n
t 0 5 n
r 2 37 e
f 4 22 w
r 6 5 e
f 8 0 e
24 3

33 46
10
t 25 38 w
t 21 24 n
h 14 10 e
h 6 41 w
f 30 44 n
r 2 1 s
h 29 32 w
h 13 6 e
f 17 1 n
h 25 8 n
24 5

32 11
4
t 8 7 s
h 8 5 s
t 1 6 w
t 13 3 w
14 5

18 50
8
f 2 2 e
r 7 32 s
r 9 26 w
r 3 14 w
f 4 47 s
r 5 35 n
h 1 47 w
h 4 29 w
6 4

31 54
3
t 12 43 n
f 9 39 n
f 4 27 s
27 4

2 22
8
t 1 16 s
h 1 8 w
h 1 11 w
r 0 4 n
r 1 19 w
t 0 3 n
f 0 8 n
t 1 21 w
19 3

21 62
4
t 12 57 w
t 0 17 e
h 13 60 w
f 19 19 e
5 5
